3_glm.utf8
…
### Bioparam data
# There are 828 unique stockid in bioparams, but only 61 trophic levels and only 298 habitats
length(unique(bioparams$stockid))
## [1] 828
dim(bioparams %>% filter(bioid=="Habitat-Habitat"))
## [1] 298   7
dim(bioparams %>% filter(bioid=="Trophiclevel-value"))
## [1] 61  7

# Which bioparams show up most frequently across the different stocks?
bioparam_count = bioparams %>% group_by(bioid) %>% summarize(n=n()) %>% arrange(desc(n))
## `summarise()` ungrouping output (override with `.groups` argument)
bioparam_count
## # A tibble: 493 x 2
##    bioid                 n
##    <chr>             <int>
##  1 SSB-SEX-sex         872
##  2 REC-AGE-yr          787
##  3 Fmsy-1/yr           514
##  4 Fmgt-type-refpt     504
##  5 Fmgt-1/yr           493
##  6 SSBmgt-type-refpt   478
##  7 SSBmgt-MT           461
##  8 TB-SEX-sex          448
##  9 SSBlim-MT           435
## 10 M-1/yr              417
## #  with 483 more rows

# The habitat data is a mess
bioparams %>% 
  filter(bioid=="Habitat-Habitat") %>% 
  group_by(biovalue) %>%
  summarize(n = n())
## `summarise()` ungrouping output (override with `.groups` argument)
## # A tibble: 26 x 2
##    biovalue                 n
##    <chr>                <int>
##  1 bathydemersal marine     2
##  2 benthic                  1
##  3 Benthic marine           1
##  4 benthopelagic            2
##  5 benthopelagic marine     1
##  6 demersal                 2
##  7 Demersal                 1
##  8 demersal marine        170
##  9 Demersal marine         14
## 10 DEMERSAL MARINE          9
## #  with 16 more rows
…
